<svg width="21" height="19" viewBox="0 0 21 19" fill="none" xmlns="http://www.w3.org/2000/svg">
	<path d="M5.81017 9.49994L9.48757 13.1773L6.33275 16.3322L0.34016 10.3396C-0.113005 9.8864 -0.113399 9.15179 0.339279 8.69814L8.51983 0.5H14.8101L5.81017 9.49994Z" fill="#0096E0" />
	<path d="M15.1899 9.50018L11.5125 5.82279L14.6673 2.66797L20.6599 8.66056C21.113 9.11372 21.1134 9.84833 20.6607 10.302L12.4802 18.5001H6.18992L15.1899 9.50018Z" fill="#D6000F" />
</svg>
